Neural Network Tools for STM32 v1.1.0 (AI tools v4.1.0)
Created date    : 2019-12-18 08:31:32

Exec/report summary (generate dur=4.814s err=0)
------------------------------------------------------------------------------------------------------------------------
model file      : D:\studia\PRACA\repo_NOWE\model\11\model.h5
model file      : D:\studia\PRACA\repo_NOWE\model\11\model.json
type            : keras (keras_conf)
c_name          : network
compression     : 4
quantize        : None
L2r error       : NOT EVALUATED
workspace dir   : C:\Users\Malwina\AppData\Local\Temp\mxAI_workspace24416895556459101430875895252762
output dir      : C:\Users\Malwina\.stm32cubemx\stm32ai_output

model_name      : model
model_hash      : 67ffdb62d60dd0165d11b2d531e8c058
input           : input_0 [1,200 items, 4.69 KiB, ai_float, FLOAT32]
input (total)   : 4.69 KiB
output          : dense_12 [2 items, 8 B, ai_float, FLOAT32]
output (total)  : 8 B
params #        : 344,514 items (1.31 MiB)
macc            : 344,288
rom (ro)        : 457,864 (447.13 KiB) -66.77%
ram (rw) wb+io  : 1,152 + 4,808 (1.12 KiB + 4.70 KiB)

------------------------------------------------------------------------------------------------------------------------
id  layer (type)     output shape      param #     connected to             macc           rom                
------------------------------------------------------------------------------------------------------------------------
0   input_0 (Input)  (1, 1, 1200)                                                                             
    dense_11 (Dense) (1, 1, 256)       307,456     input_0                  307,200        309,248 (c)        
------------------------------------------------------------------------------------------------------------------------
1   lstm_2 (LSTM)    (1, 1, 32)        36,992      dense_11                 37,024         148,352            
------------------------------------------------------------------------------------------------------------------------
2   dense_12 (Dense) (1, 1, 2)         66          lstm_2                   64             264                
------------------------------------------------------------------------------------------------------------------------
model p=344514(1.31 MBytes) macc=344288 rom=447.13 KBytes ram=1.12 KBytes -66.77%

 
Complexity per-layer - macc=344,288 rom=457,864
------------------------------------------------------------------------------------------------------------------------
id      layer (type)     macc                                    rom                                    
------------------------------------------------------------------------------------------------------------------------
0       dense_11 (Dense) |||||||||||||||||||||||||||||||  89.2%  |||||||||||||||||||||||||||||||  67.5% 
1       lstm_2 (LSTM)    ||||                             10.8%  |||||||||||||||                  32.4% 
2       dense_12 (Dense) |                                 0.0%  |                                 0.1% 
------------------------------------------------------------------------------------------------------------------------


Evaluation report (summary)
--------------------------------------------------
NOT EVALUATED
